{
  "com.badlogic.gdx.graphics.g2d.BitmapFont": {
    "kenvector": { "file": "fonts/kenvector-20.fnt" }
  },

  "com.badlogic.gdx.graphics.Color": {
    "white": { "r": 1, "g": 1, "b": 1, "a": 1 },
    "black": { "r": 0, "g": 0, "b": 0, "a": 1 }
  },

  "com.badlogic.gdx.scenes.scene2d.ui.Label$LabelStyle": {
    "default": { "fontColor": "white", "font": "kenvector"}
  },

  "com.badlogic.gdx.scenes.scene2d.ui.TextButton$TextButtonStyle": {
    "default": { "font": "kenvector", "up": "grey_button01" , "down": "grey_button02", "pressedOffsetY": -4, "fontColor": "black" }
  },

  "com.badlogic.gdx.scenes.scene2d.ui.CheckBox$CheckBoxStyle": {
    "default": { "checkboxOn": "grey_boxCheckmark", "checkboxOff": "grey_boxCross", "font": "kenvector", "fontColor": "white" }
  },

  "com.badlogic.gdx.scenes.scene2d.ui.Slider$SliderStyle": {
    "default-horizontal": { "background": "grey_sliderHorizontal", "knob": "grey_tickGrey" },
    "default-vertical": { "background": "grey_sliderVertical", "knob": "grey_tickGrey" }
  }
}